<?xml version="1.0" encoding="UTF-8"?>
<svg width="50px" height="340px" viewBox="0 0 50 340" version="1.1" xmlns="http://www.w3.org/2000/svg" xmlns:xlink="http://www.w3.org/1999/xlink">
    <!-- Generator: Sketch 43.1 (39012) - http://www.bohemiancoding.com/sketch -->
    <title>btn_arrow_portrait-left</title>
    <desc>Created with Sketch.</desc>
    <defs></defs>
    <g id="Assets" stroke="none" stroke-width="1" fill="none" fill-rule="evenodd">
        <g id="Artboard" transform="translate(-1339.000000, -102.000000)">
            <g id="btn_arrow_portrait-left" transform="translate(1339.000000, 102.000000)">
                <rect id="Rectangle-Copy-3" fill-opacity="0.75" fill="#000000" x="0" y="0" width="50" height="340"></rect>
                <polyline id="arrow_right" stroke="#FFFFFF" stroke-width="2" transform="translate(25.000000, 170.000000) scale(-1, 1) translate(-25.000000, -170.000000) " points="16.2025838 152 34 169.898135 16 188"></polyline>
            </g>
        </g>
    </g>
</svg>