<?xml version="1.0" encoding="UTF-8"?>
<svg width="50px" height="143px" viewBox="0 0 50 143" version="1.1" xmlns="http://www.w3.org/2000/svg" xmlns:xlink="http://www.w3.org/1999/xlink">
    <!-- Generator: Sketch 43.1 (39012) - http://www.bohemiancoding.com/sketch -->
    <title>btn_arrow-right</title>
    <desc>Created with Sketch.</desc>
    <defs></defs>
    <g id="Assets" stroke="none" stroke-width="1" fill="none" fill-rule="evenodd">
        <g id="Artboard" transform="translate(-1088.000000, -185.000000)">
            <g id="btn_arrow-right" transform="translate(1088.000000, 185.000000)">
                <rect id="Rectangle-Copy-3" fill-opacity="0.75" fill="#000000" x="0" y="0" width="50" height="143"></rect>
                <polyline id="arrow_right" stroke="#FFFFFF" stroke-width="2" points="16.2025838 54 34 71.8981349 16 90"></polyline>
            </g>
        </g>
    </g>
</svg>